{
  "21735da4722b83cfeca7d1ea5dab787213b600150e473cc011f0ef9919745deb": {
    "repo_id": "611715548",
    "repo_name": "matter-labs/era-compiler-tests",
    "repo_head": "ea5134338da679cdf346c540fb90c83e6dd8d44d",
    "repo_path": "solidity/ethereum/abiEncoderV1/memory_params_in_external_function.sol"
  },
  "50ff12adfad8f5d730ff8965d537dc4d93f53954b6edfc6b4b644d2fd997ccc5": {
    "repo_id": "454032456",
    "repo_name": "tintinweb/smart-contract-sanctuary-avalanche",
    "repo_head": "39792ff211cb89e79e9eb6ee7278f6843acb5cc6",
    "repo_path": "contracts/testnet/38/38D7D563d8860945dB05A6C4DFf3CB3B6B9d6A57_DistributorV1.sol"
  },
  "a3f202979846cb350a29b7bfaf5d07eba9ffcf037a1fafa2d3e9411565f6a5c8": {
    "repo_id": "454032456",
    "repo_name": "tintinweb/smart-contract-sanctuary-avalanche",
    "repo_head": "39792ff211cb89e79e9eb6ee7278f6843acb5cc6",
    "repo_path": "contracts/mainnet/86/86673112615ecf53b8aca23195b9e874c72e45c5_AirdropContract.sol"
  },
  "9bd63945f053a51b3344439cf789bea5db6690a368aa91b16a257824122c7560": {
    "repo_id": "606585904",
    "repo_name": "plotchy/defi-detective",
    "repo_head": "f48830b1085dac002283a2ce5e565e341aab5d0c",
    "repo_path": "00byaddress/00a33b772cb905eb3a19d083b93c7d3b0abd39ee.sol"
  },
  "265d97446a1f2c273ea3f568c78b41316cc3d52c4de5a24c38b26b8482726930": {
    "repo_id": "454032456",
    "repo_name": "tintinweb/smart-contract-sanctuary-avalanche",
    "repo_head": "39792ff211cb89e79e9eb6ee7278f6843acb5cc6",
    "repo_path": "contracts/testnet/49/49d8C4fc7D5AEa69A52Cecc0c82fb4C429a5b16C_Authentication.sol"
  },
  "6f4a31ef9cb0d95e0295ef086889e8fc836120c1072ab82cf03bb83bb3503c1c": {
    "repo_id": "611715548",
    "repo_name": "matter-labs/era-compiler-tests",
    "repo_head": "ea5134338da679cdf346c540fb90c83e6dd8d44d",
    "repo_path": "solidity/ethereum/array/memory_arrays_of_various_sizes.sol"
  },
  "76858b00815d0113a5ba7655a6c9469a1d60cb00109b77fab18085a7af3d5296": {
    "repo_id": "454032456",
    "repo_name": "tintinweb/smart-contract-sanctuary-avalanche",
    "repo_head": "39792ff211cb89e79e9eb6ee7278f6843acb5cc6",
    "repo_path": "contracts/testnet/b7/B714Cc5a1F3578363CdB768a34d918DF2367AEE2_Gambit.sol"
  },
  "ad6d016651173c6ad056580f7da7fd7e824af9016e55fe6efbee8bb3393ec538": {
    "repo_id": "493271327",
    "repo_name": "dropstar-co/dropstar-0xSplits",
    "repo_head": "260064230c4798f90ea693f068aeeb7d8051f932",
    "repo_path": "contracts/Multicall2.sol"
  },
  "4985ef913afbf0f589ad5b45627e34390eaa375cf2527b8cd7d084cf51568e8e": {
    "repo_id": "421919125",
    "repo_name": "Jon-Becker/ethereum-recurring-payments",
    "repo_head": "e547434f279c41a001a430816cae51026f8c9c67",
    "repo_path": "contracts/recurring-payments.sol"
  },
  "2ef364b7cbde5643ef918b182eeb0a9c3f86fc87681121a20bc2bfd89ed21cc5": {
    "repo_id": "454032456",
    "repo_name": "tintinweb/smart-contract-sanctuary-avalanche",
    "repo_head": "39792ff211cb89e79e9eb6ee7278f6843acb5cc6",
    "repo_path": "contracts/mainnet/4d/4D4F3F2923DAdED7559368058138b87c641414EF_MultiCall2.sol"
  },
  "42f4e9e20e5e0a3aa91795bcd8571cc1f9e6b1017b5e962f1ecd36a7d10341da": {
    "repo_id": "454080957",
    "repo_name": "tintinweb/smart-contract-sanctuary-arbitrum",
    "repo_head": "22f63ccbfcf792323b5e919312e2678851cff29e",
    "repo_path": "contracts/mainnet/21/216FCA6C9830A393d46583891ccebF526d6a9602_GPTARBI.sol"
  },
  "3e899243845007c00edbe6a07cd5552da1551b3362eb7c9d2bcf32ec2c98a3e6": {
    "repo_id": "454080957",
    "repo_name": "tintinweb/smart-contract-sanctuary-arbitrum",
    "repo_head": "22f63ccbfcf792323b5e919312e2678851cff29e",
    "repo_path": "contracts/mainnet/72/72079752f93620685386d6cf5F81D45637D55204_OptimusDOGE.sol"
  },
  "7f5d1086919eddf787c902860fa665f9fc2c7cde7ddeeb7b50cd6fd81ab8062c": {
    "repo_id": "454032456",
    "repo_name": "tintinweb/smart-contract-sanctuary-avalanche",
    "repo_head": "39792ff211cb89e79e9eb6ee7278f6843acb5cc6",
    "repo_path": "contracts/testnet/90/907a2918877a690b2c031b819ce5a3ce46dacbc8_Multicall.sol"
  },
  "24e4e552b63ceabfee1e8b7400eee8c9cac316d51d75a45aa50f5ccb1bec27a1": {
    "repo_id": "454032456",
    "repo_name": "tintinweb/smart-contract-sanctuary-avalanche",
    "repo_head": "39792ff211cb89e79e9eb6ee7278f6843acb5cc6",
    "repo_path": "contracts/testnet/08/087988db2942af3d8e75f6610bd375D7Bcd1491A_RequestData.sol"
  },
  "4f1d54089cd770e6f332aa06333c4f5ec2d681ebe087f72a56f5c32ee01f6fd3": {
    "repo_id": "503332442",
    "repo_name": "valory-xyz/autonolas-registries",
    "repo_head": "96148e0b7690327e65794070d8d5e839bba6f815",
    "repo_path": "contracts/utils/OperatorWhitelist.sol"
  },
  "525a9d5ebb21d60a891c13115d900ddf88f27d39bd09e521d19c63ede1fe8ee0": {
    "repo_id": "454032456",
    "repo_name": "tintinweb/smart-contract-sanctuary-avalanche",
    "repo_head": "39792ff211cb89e79e9eb6ee7278f6843acb5cc6",
    "repo_path": "contracts/mainnet/68/68f23fbd0baf74a9c922c8060c3ec737968c5f27_WOD.sol"
  },
  "4d8cec805a5b14d78b311b6473fdc1ce30ea19aeb0995bb3c1490989ad0da41e": {
    "repo_id": "454032456",
    "repo_name": "tintinweb/smart-contract-sanctuary-avalanche",
    "repo_head": "39792ff211cb89e79e9eb6ee7278f6843acb5cc6",
    "repo_path": "contracts/mainnet/82/82979a6f8D628270B29F5687bEA2F73D5D0eC77d_Multicall.sol"
  },
  "dcfc230271c0e1016e028d5e122bcb9932637f975bdc1480cb82b47b99fcbcd3": {
    "repo_id": "336748378",
    "repo_name": "depthfinance/contract",
    "repo_head": "a4bab7e0c49a3b95c9058be7f59325ae8767be79",
    "repo_path": "Depth.DEX/Multicall.sol"
  },
  "2c7e160d83a527d6e02eb0fd84cdef181d83f267cb12fa7b392dea96ca8e6d0d": {
    "repo_id": "454032456",
    "repo_name": "tintinweb/smart-contract-sanctuary-avalanche",
    "repo_head": "39792ff211cb89e79e9eb6ee7278f6843acb5cc6",
    "repo_path": "contracts/testnet/98/9800d7be5Fa198FA33e69810e87785E1A1aCC045_Multicall2.sol"
  },
  "508b15fa14fec16f5e74956b81991097dbf478174bd0213cbeff47ff94c5b8f9": {
    "repo_id": "454080957",
    "repo_name": "tintinweb/smart-contract-sanctuary-arbitrum",
    "repo_head": "22f63ccbfcf792323b5e919312e2678851cff29e",
    "repo_path": "contracts/mainnet/f3/f33c03E61A6ae0840aA184bcB6e46b5be8ADBf45_ShibaJackpot.sol"
  },
  "a02ac94ea1db1487cbf69932df1fc89ef7c377046a30b9b81a8959f348f118c3": {
    "repo_id": "308569330",
    "repo_name": "yfmars-dev/mars-swap-farm",
    "repo_head": "c3b785ac9380bf5602084abbd75cfdf7bd9263e2",
    "repo_path": "contracts/Multicall.sol"
  },
  "0cd77d8170e5765d5a23ee1d22dc074f02a0f085c866a7560621e7d8acf78ef9": {
    "repo_id": "593908510",
    "repo_name": "SKKU-SecLab/SmartMark",
    "repo_head": "fdf0675d2f959715d6f822351544c6bc91a5bdd4",
    "repo_path": "dataset/Solidity_codes_9324/0x50fe35abc7ec2cee3426cd354f83e26f56e0c14a.sol"
  },
  "1c142132105f4552d80097b4fa3010aeb47f3acd3182607830211804c114a51e": {
    "repo_id": "454032456",
    "repo_name": "tintinweb/smart-contract-sanctuary-avalanche",
    "repo_head": "39792ff211cb89e79e9eb6ee7278f6843acb5cc6",
    "repo_path": "contracts/testnet/b7/B7CaA41810Dc3F297EfB615f273CdfDE1a747bc0_HorseRewardPool.sol"
  },
  "249c338699ec47c221049a12f89dcca60fa28c97bef9055bc864d550881a9084": {
    "repo_id": "454080957",
    "repo_name": "tintinweb/smart-contract-sanctuary-arbitrum",
    "repo_head": "22f63ccbfcf792323b5e919312e2678851cff29e",
    "repo_path": "contracts/mainnet/77/771ca4be4abdf29e1da83d5bdcf40a1491a87be2_Pengutang.sol"
  },
  "a2ba6cb9201b46cb9af86e0680d6b04aa933ae2439303f1dce094ef15019bcd0": {
    "repo_id": "454032456",
    "repo_name": "tintinweb/smart-contract-sanctuary-avalanche",
    "repo_head": "39792ff211cb89e79e9eb6ee7278f6843acb5cc6",
    "repo_path": "contracts/testnet/bc/bcfBE7B5411823c09E3Ae704d29A74f92CBC4762_Multicall.sol"
  },
  "0e963e34d78e21f164e0d4fcbd2a380702ef5970b8a6be1f7e3674c998d1b3c8": {
    "repo_id": "454080957",
    "repo_name": "tintinweb/smart-contract-sanctuary-arbitrum",
    "repo_head": "22f63ccbfcf792323b5e919312e2678851cff29e",
    "repo_path": "contracts/mainnet/34/34579701c3e53926ae9a555abb9443c79d1bc3c3_ForeverFomo.sol"
  },
  "361e4dc28a7886055999cd535d20225d83a53b3b23a638f73fbc8eb09dec09de": {
    "repo_id": "454032456",
    "repo_name": "tintinweb/smart-contract-sanctuary-avalanche",
    "repo_head": "39792ff211cb89e79e9eb6ee7278f6843acb5cc6",
    "repo_path": "contracts/testnet/44/44A1d39Df074b73402CeE8B6042244Fca2b07843_Helper.sol"
  },
  "1835a3598548c5716a0c958b29771d6f438eb0a890a78496d2f1aa8a40c0b780": {
    "repo_id": "454032456",
    "repo_name": "tintinweb/smart-contract-sanctuary-avalanche",
    "repo_head": "39792ff211cb89e79e9eb6ee7278f6843acb5cc6",
    "repo_path": "contracts/mainnet/e7/e77549624c27682868ba38b51fb8d156ee2f22e9_SubscriptionFactory.sol"
  },
  "3617156a659f86226eabacbdd8a73e8b15782916a576f5d0c56ef4b124df8cad": {
    "repo_id": "454032456",
    "repo_name": "tintinweb/smart-contract-sanctuary-avalanche",
    "repo_head": "39792ff211cb89e79e9eb6ee7278f6843acb5cc6",
    "repo_path": "contracts/testnet/d0/D0a9E525fC5861fA077B2CA0292532C0aFbe8187_SSLinearVesting.sol"
  },
  "234d1db7bc5bb0375ee936142ca55e8d57ed693db53000597e0797794fe16f93": {
    "repo_id": "596331795",
    "repo_name": "x7finance/community",
    "repo_head": "4491bc7b43c7d052800143f8e36c6216873d24fa",
    "repo_path": "contracts/contract-source-code/X7DAOLiquidityHub.sol"
  },
  "735a8049691e868c125dad3b1783dca6024df650c3ddfd39624f6da18b018633": {
    "repo_id": "454032456",
    "repo_name": "tintinweb/smart-contract-sanctuary-avalanche",
    "repo_head": "39792ff211cb89e79e9eb6ee7278f6843acb5cc6",
    "repo_path": "contracts/testnet/00/00279993dfb17f798ae03759d9621b7fca524bdc_publicTest.sol"
  },
  "2a3eeead83d351f4a1122bfe65a8217f392e4189681228425737120fb58fc0a0": {
    "repo_id": "454032456",
    "repo_name": "tintinweb/smart-contract-sanctuary-avalanche",
    "repo_head": "39792ff211cb89e79e9eb6ee7278f6843acb5cc6",
    "repo_path": "contracts/testnet/52/52d131BB532B107B33Dc2E48B8c51450B70cf57A_Sample.sol"
  },
  "a917fda21908b9f97a8edb2913b9574f44375d7f4e5375c8539ca1ff5e947a68": {
    "repo_id": "468407125",
    "repo_name": "tintinweb/smart-contract-sanctuary-optimism",
    "repo_head": "5f86f1320e8b5cdf11039be240475eff1303ed67",
    "repo_path": "contracts/mainnet/88/88df8dc84426AfDe551acb655042c4660f512Df3_SafelySend.sol"
  },
  "5eae915951ab5d0a0be100ab5f6c54bab5644948c4299bc02d9f4280bf670cca": {
    "repo_id": "454032456",
    "repo_name": "tintinweb/smart-contract-sanctuary-avalanche",
    "repo_head": "39792ff211cb89e79e9eb6ee7278f6843acb5cc6",
    "repo_path": "contracts/mainnet/de/dE70e0A7A57037509C6b842A62e0c21C649bF4Cc_Bulk_Sender.sol"
  },
  "e5f1cc3f1d691c7bafa1b01040495d6ca674dc7adb5e08d2968fafb0177f57fb": {
    "repo_id": "502347719",
    "repo_name": "timoftime/zk-SQL",
    "repo_head": "4c3626d383873fdd5e64e7fa874967d26cc61f96",
    "repo_path": "contracts/zkSQL.sol"
  },
  "d72d047aa38ee2eccb70866075dcacf7565cd38d0de8a4df7853116c0942eb4a": {
    "repo_id": "454085139",
    "repo_name": "tintinweb/smart-contract-sanctuary-fantom",
    "repo_head": "63c4f5207082cb2a5f3ee5a49ccec1870b1acf3a",
    "repo_path": "contracts/mainnet/c8/c8dcf0c8e775bb70392f40400cd6156f8b8e7af6_S.sol"
  },
  "f2a6b647d0862e7e7f921acd3931f53cd783b2ff8e0ac2c743991fb43a7462e3": {
    "repo_id": "454032456",
    "repo_name": "tintinweb/smart-contract-sanctuary-avalanche",
    "repo_head": "39792ff211cb89e79e9eb6ee7278f6843acb5cc6",
    "repo_path": "contracts/testnet/07/072c535a8ac79b2cd5dabf343bea54b50353fa5f_StarshipWLCrowdsale.sol"
  },
  "461cdfea4d7d23f467d1b0f5ffb7ca7e682c592dd38ffeea3a167446b8cc6df2": {
    "repo_id": "413505224",
    "repo_name": "HysMagus/bsc-contract-sanctuary",
    "repo_head": "3664d1747968ece64852a6ac82c550aff18dfcb5",
    "repo_path": "0xD4ce928B960fBB9Af9e466074106403a360d4b4d/contract.sol"
  },
  "c3db358502f00751183ec665bd8093cd8a04270929c8a1f239f5c001de3592bb": {
    "repo_id": "454032456",
    "repo_name": "tintinweb/smart-contract-sanctuary-avalanche",
    "repo_head": "39792ff211cb89e79e9eb6ee7278f6843acb5cc6",
    "repo_path": "contracts/mainnet/32/32519d4a7886630d5ae08b52c3573f33b527809d_Airdropper.sol"
  },
  "a8eb0b4fadc5a59315c1cfeb50782c9575801315f9b9e4feaac4538c712115d2": {
    "repo_id": "468407125",
    "repo_name": "tintinweb/smart-contract-sanctuary-optimism",
    "repo_head": "5f86f1320e8b5cdf11039be240475eff1303ed67",
    "repo_path": "contracts/mainnet/60/60b3BC37593853c04410c4F07fE4D6748245BF77_ShieldHash.sol"
  },
  "37b09e0bb02ad55041e5bb926331bd7a0cfaa0cd565d1d9942fa86bdd42b6528": {
    "repo_id": "454080957",
    "repo_name": "tintinweb/smart-contract-sanctuary-arbitrum",
    "repo_head": "22f63ccbfcf792323b5e919312e2678851cff29e",
    "repo_path": "contracts/testnet/90/90BBd8Ae9Caaa2A0f8009B6052A9A85935989F2A_CoinFlip.sol"
  },
  "9bb2e2c62ffff63c018d4ab92938726ee72b880085e7a3c28cc73e217edac200": {
    "repo_id": "454085139",
    "repo_name": "tintinweb/smart-contract-sanctuary-fantom",
    "repo_head": "63c4f5207082cb2a5f3ee5a49ccec1870b1acf3a",
    "repo_path": "contracts/mainnet/06/06adc1b9c1ab57d30b9fc804f4bd87452f0d6f86_eERC.sol"
  },
  "b8d0c781459732eff36c119136a21287bfc7fc20beaf2a9509618f528bcdf4ee": {
    "repo_id": "454085139",
    "repo_name": "tintinweb/smart-contract-sanctuary-fantom",
    "repo_head": "63c4f5207082cb2a5f3ee5a49ccec1870b1acf3a",
    "repo_path": "contracts/mainnet/4c/4c3219144a60c8e4e98ed9981baff56a8dcb75d4_FantomMulticall.sol"
  },
  "5c8d65238da2e44fdf5e7d27eb5ff78b48558d96c9581aa96a9fd73b68561589": {
    "repo_id": "454032456",
    "repo_name": "tintinweb/smart-contract-sanctuary-avalanche",
    "repo_head": "39792ff211cb89e79e9eb6ee7278f6843acb5cc6",
    "repo_path": "contracts/testnet/2b/2baadf55fb2177e8d13708a7f09b966f671555eb_Multicall.sol"
  },
  "21d05618d0d14de1fe34948d72d3939253aedfdf65862fa653dc99b89ee0cd35": {
    "repo_id": "454032456",
    "repo_name": "tintinweb/smart-contract-sanctuary-avalanche",
    "repo_head": "39792ff211cb89e79e9eb6ee7278f6843acb5cc6",
    "repo_path": "contracts/mainnet/c5/c56401249c285b5a8ffc450e7430095038c63cc3_BoutiqueSwapper.sol"
  },
  "a0a1f04c983631a4392cfc421dba8b296b15426f4dafbb51330d39c1ee90be81": {
    "repo_id": "454085139",
    "repo_name": "tintinweb/smart-contract-sanctuary-fantom",
    "repo_head": "63c4f5207082cb2a5f3ee5a49ccec1870b1acf3a",
    "repo_path": "contracts/mainnet/08/0887804e34d71553096ad208c30eb15135d00f70_eERC.sol"
  },
  "1ec6e53d42d7da70280152c356398e23108161d11eee90c197432da6961bb7e0": {
    "repo_id": "593908510",
    "repo_name": "SKKU-SecLab/SmartMark",
    "repo_head": "fdf0675d2f959715d6f822351544c6bc91a5bdd4",
    "repo_path": "dataset/Solidity_codes_9324/0xcc01c55c0c57b93e22f3178a4b4fea1843a05238.sol"
  },
  "86181bfe3bb6c55285b3c3a86ed44ba11fed150d43372a4837f0fdcf1ee72077": {
    "repo_id": "454080957",
    "repo_name": "tintinweb/smart-contract-sanctuary-arbitrum",
    "repo_head": "22f63ccbfcf792323b5e919312e2678851cff29e",
    "repo_path": "contracts/mainnet/cd/Cd3b5577BD1a60FC26ce77D0303ffF68Fa33C3E7_ShibariumPetAdress.sol"
  },
  "daea964ae2c08707465942e4284eeae5bd8f0d9403a5f8647a32b34348de7015": {
    "repo_id": "468407125",
    "repo_name": "tintinweb/smart-contract-sanctuary-optimism",
    "repo_head": "5f86f1320e8b5cdf11039be240475eff1303ed67",
    "repo_path": "contracts/mainnet/4b/4bc77d6c07245189c47c5f1cd65df4e82c94d45f_MultipleCaller.sol"
  },
  "ffb456cd9996a0ebdd1a81a58e77055c2d6e5a0a5b5dee3334b9281865dd654a": {
    "repo_id": "580453861",
    "repo_name": "Sahar-Yousef/NFT-tickting-WEB3",
    "repo_head": "449a6f374a50d6c4943a70c71d3af6d194491f5c",
    "repo_path": "MainSmartContract.sol"
  },
  "e912dc0327508c5d4c4cac742f14418f7f5cb04ccfd2026b3fe744b33af102c3": {
    "repo_id": "454085139",
    "repo_name": "tintinweb/smart-contract-sanctuary-fantom",
    "repo_head": "63c4f5207082cb2a5f3ee5a49ccec1870b1acf3a",
    "repo_path": "contracts/mainnet/47/47dF62e9350363783d86c577bCf50585F9B3b8D8_MultipleCopperMigration.sol"
  },
  "52f8b80895b66b41273d7746ecf27a0351e772964cfdc5c91e14a912336ac64c": {
    "repo_id": "454080957",
    "repo_name": "tintinweb/smart-contract-sanctuary-arbitrum",
    "repo_head": "22f63ccbfcf792323b5e919312e2678851cff29e",
    "repo_path": "contracts/testnet/f2/f2a594F84799B28E68E9bD4870E8BB67C3b5CB9c_Disperse.sol"
  },
  "431aff4ac52700e1ccc1a3dcc960d031a5a6bdfaafff20b87d0256f668363229": {
    "repo_id": "454032456",
    "repo_name": "tintinweb/smart-contract-sanctuary-avalanche",
    "repo_head": "39792ff211cb89e79e9eb6ee7278f6843acb5cc6",
    "repo_path": "contracts/mainnet/cf/CF233fD31dC1A473fdb93F5d57D09A3717D0e13E_ColorBubbleAirDrop.sol"
  },
  "e57a7551baa80a806dc726330e12235abc4c8d6603a0d2c067a6fd8ff4ecc23e": {
    "repo_id": "611715548",
    "repo_name": "matter-labs/era-compiler-tests",
    "repo_head": "ea5134338da679cdf346c540fb90c83e6dd8d44d",
    "repo_path": "solidity/ethereum/calldata/calldata_array_length.sol"
  },
  "e752393cfbf53666510624c6f6f03cef37998ae540d6af3ae829924ce66a2794": {
    "repo_id": "454080957",
    "repo_name": "tintinweb/smart-contract-sanctuary-arbitrum",
    "repo_head": "22f63ccbfcf792323b5e919312e2678851cff29e",
    "repo_path": "contracts/mainnet/05/05cdcdf465c3a1ff45be25742b98c328d986671b_ETdoge.sol"
  },
  "9670e55e7e5c15d5977901d7df8ca0766b624e90061c7972ad38c13db9862084": {
    "repo_id": "454032456",
    "repo_name": "tintinweb/smart-contract-sanctuary-avalanche",
    "repo_head": "39792ff211cb89e79e9eb6ee7278f6843acb5cc6",
    "repo_path": "contracts/mainnet/a1/a117A5E7f14336E45F034aED6DfD85a7F7EeE7Ea_Multicall2.sol"
  },
  "656a9823edf75138d67c05292af07772ea5c58981724f4ef87de63d82153ea43": {
    "repo_id": "611715548",
    "repo_name": "matter-labs/era-compiler-tests",
    "repo_head": "ea5134338da679cdf346c540fb90c83e6dd8d44d",
    "repo_path": "solidity/ethereum/array/copying/array_copy_storage_storage_dyn_dyn.sol"
  },
  "c3ac726b25d3f2bd1b55e4a67cd83d49ea8942a4c8681575425d836d5289bb54": {
    "repo_id": "454085139",
    "repo_name": "tintinweb/smart-contract-sanctuary-fantom",
    "repo_head": "63c4f5207082cb2a5f3ee5a49ccec1870b1acf3a",
    "repo_path": "contracts/mainnet/7c/7cefb7ddda4f045c3225266e1590230a86ce2b39_LiquidityManager.sol"
  },
  "66bbda3528cdb94c3f30079013eca454f89781fbf4fa827e2d8d042994c06099": {
    "repo_id": "454080957",
    "repo_name": "tintinweb/smart-contract-sanctuary-arbitrum",
    "repo_head": "22f63ccbfcf792323b5e919312e2678851cff29e",
    "repo_path": "contracts/testnet/19/195646Be0d58867Eb37555A69FBEd5c1646E51D3_AirdropClaim.sol"
  },
  "01d4fc7704c24db838af72fc66517a43acb993722ad42c49f86faa6d9e84264d": {
    "repo_id": "454032456",
    "repo_name": "tintinweb/smart-contract-sanctuary-avalanche",
    "repo_head": "39792ff211cb89e79e9eb6ee7278f6843acb5cc6",
    "repo_path": "contracts/mainnet/9f/9f019002f278b4bff3cbda3fe75480c29b80b2f7_Treasury.sol"
  },
  "1508ea110b3e0f529227042ba867e71755ad5602e1c471bcfb185e7e172616a9": {
    "repo_id": "454032456",
    "repo_name": "tintinweb/smart-contract-sanctuary-avalanche",
    "repo_head": "39792ff211cb89e79e9eb6ee7278f6843acb5cc6",
    "repo_path": "contracts/mainnet/aa/aad2d03809430eaf2ec17bc6f4d2260e6e409cb7_PauseGuardian.sol"
  },
  "389786a2c82e2436fc0b616c493195bace1279eccf872a6975f1dd09bb0125d0": {
    "repo_id": "454080957",
    "repo_name": "tintinweb/smart-contract-sanctuary-arbitrum",
    "repo_head": "22f63ccbfcf792323b5e919312e2678851cff29e",
    "repo_path": "contracts/testnet/b4/b403Ab504Fcc238850E6734B1E6c2905baAbBD1f_GenericBingo.sol"
  },
  "bb4e62a8d7a2356157dddcfe6047befda097ccdd1f370b9fe137650a77eeb486": {
    "repo_id": "454080957",
    "repo_name": "tintinweb/smart-contract-sanctuary-arbitrum",
    "repo_head": "22f63ccbfcf792323b5e919312e2678851cff29e",
    "repo_path": "contracts/mainnet/d0/d01f1b11e2a3e9326ed55b38b3fdf6fa28669862_ROOT.sol"
  },
  "6016d68e8e7b2ba4e26887e97d6e495bd22723cb784098d21b30987222b48b09": {
    "repo_id": "426153531",
    "repo_name": "TheAlgorithms/Solidity",
    "repo_head": "1f4803962174e03cf0f363ad0f7540248ecaa174",
    "repo_path": "src/Maths/AddArray.sol"
  },
  "6634f687f4bc82c303641e05110ff4ea6f6683b73c8353e8fb2606296aa95e87": {
    "repo_id": "454085139",
    "repo_name": "tintinweb/smart-contract-sanctuary-fantom",
    "repo_head": "63c4f5207082cb2a5f3ee5a49ccec1870b1acf3a",
    "repo_path": "contracts/mainnet/52/52c6fb38a3b1a94d1e5f45ab97ac2b3aa02d9086_EverSwap.sol"
  },
  "fe6eb476f263beb5bca398754096482db97134491b6c397a20ced5511a15f89a": {
    "repo_id": "454032456",
    "repo_name": "tintinweb/smart-contract-sanctuary-avalanche",
    "repo_head": "39792ff211cb89e79e9eb6ee7278f6843acb5cc6",
    "repo_path": "contracts/testnet/d5/d56dc13c9edaabdf179379093f0658e47021e696_NftStaker.sol"
  },
  "916591013228dc82c972ec6275c5cb54585567ec048efc9f9ad273e8bd402e0a": {
    "repo_id": "454032456",
    "repo_name": "tintinweb/smart-contract-sanctuary-avalanche",
    "repo_head": "39792ff211cb89e79e9eb6ee7278f6843acb5cc6",
    "repo_path": "contracts/mainnet/81/8123bd2b625d5cb74ba54894eaf13fcc79f112d0_Treasury.sol"
  },
  "9c27a76b986ee25ace34e84c46c1685e1ccbbedcec92b8e20fe05717d382148d": {
    "repo_id": "454080957",
    "repo_name": "tintinweb/smart-contract-sanctuary-arbitrum",
    "repo_head": "22f63ccbfcf792323b5e919312e2678851cff29e",
    "repo_path": "contracts/mainnet/cd/cd85810319e75D05157e3a6faC1d81C84367a244_ElonAI.sol"
  },
  "a130e0f8bf4ecf58b108e2106d131eaed80c65a65d5c6b9bbe5f65b3e53ba778": {
    "repo_id": "454032456",
    "repo_name": "tintinweb/smart-contract-sanctuary-avalanche",
    "repo_head": "39792ff211cb89e79e9eb6ee7278f6843acb5cc6",
    "repo_path": "contracts/testnet/fe/feb37c3995e97A86C804707F1cC09EE11B7100b6_StakingManager.sol"
  },
  "9d99a9991e44dc7dce170b55002112f13a86e33514d679b2f7ec3eb78faac293": {
    "repo_id": "454080957",
    "repo_name": "tintinweb/smart-contract-sanctuary-arbitrum",
    "repo_head": "22f63ccbfcf792323b5e919312e2678851cff29e",
    "repo_path": "contracts/mainnet/c6/C6fFF36956D537a165B1168F80EC6C15169d20A6_SharbiTwo.sol"
  },
  "16aebec2a0114693da57e42a52ab847d7fc9e9fae7ab6e31703fde7a24cdab3f": {
    "repo_id": "454032456",
    "repo_name": "tintinweb/smart-contract-sanctuary-avalanche",
    "repo_head": "39792ff211cb89e79e9eb6ee7278f6843acb5cc6",
    "repo_path": "contracts/testnet/4d/4d393603131eCfecC4dC358Ff1eAF7214B083987_SignAndTrust.sol"
  },
  "bf5e36950a48c2d1642bb43923eaa4c55ce8b6d111d342c34e899a8df80643a8": {
    "repo_id": "593908510",
    "repo_name": "SKKU-SecLab/SmartMark",
    "repo_head": "fdf0675d2f959715d6f822351544c6bc91a5bdd4",
    "repo_path": "dataset/Solidity_codes_9324/0x35bc0bae572bd01e9c4a5d48dcfea814b86a783d.sol"
  },
  "e9ea68244b819d7bb22d221eef11145ec6a6caf2853d5c933147449d5d84d60d": {
    "repo_id": "423158227",
    "repo_name": "standardweb3/standard-evm",
    "repo_head": "86aaa3213ce12e08dd30ae0f2d9f05b9df22aa4c",
    "repo_path": "contracts/oracle/test.sol"
  },
  "effbaf84368e9edaa790f04aa62874b81adaa32f23a7672aa3ac8bccb22f2428": {
    "repo_id": "472227636",
    "repo_name": "sambacha/isdx",
    "repo_head": "efaead191011e64d800ca38dacf8b7e18ec92b67",
    "repo_path": "src/WalletSummarizer.sol"
  },
  "9100bbef69574d21e6c0682fa167d56db486a9b066fdd9f1c5d898c64e582450": {
    "repo_id": "454085139",
    "repo_name": "tintinweb/smart-contract-sanctuary-fantom",
    "repo_head": "63c4f5207082cb2a5f3ee5a49ccec1870b1acf3a",
    "repo_path": "contracts/mainnet/b5/b5c12f6DebAeEDE2107839D932E9a0d435AE5A4f_SoulAuraV2.sol"
  },
  "486a82581514adb7a46666478ca07e0fc38b409d77a2b2900a2e230f0de40db0": {
    "repo_id": "454032456",
    "repo_name": "tintinweb/smart-contract-sanctuary-avalanche",
    "repo_head": "39792ff211cb89e79e9eb6ee7278f6843acb5cc6",
    "repo_path": "contracts/mainnet/03/0305C9d88c85cf76dF94E0d579D59b3c5D43396D_Disperse.sol"
  },
  "be03ff3488c6e7311fdcd56796024bca228c17bb0e058f2c4c5587b3581f9077": {
    "repo_id": "454032456",
    "repo_name": "tintinweb/smart-contract-sanctuary-avalanche",
    "repo_head": "39792ff211cb89e79e9eb6ee7278f6843acb5cc6",
    "repo_path": "contracts/testnet/c7/c7BE0807843396c22f5B3D550872D0Cb9f113165_Market.sol"
  },
  "88c545dc26f27d4861af0e630cabc3b05fc88688e4f706af7eaa337f7915293f": {
    "repo_id": "454080957",
    "repo_name": "tintinweb/smart-contract-sanctuary-arbitrum",
    "repo_head": "22f63ccbfcf792323b5e919312e2678851cff29e",
    "repo_path": "contracts/mainnet/b1/B1E1431D2267d70D0A6C051788931b035418460C_SantaWallet.sol"
  },
  "4c7f6b94e87752475330155cdc006b1e6a262ae6a9b445d95bd1b4cc3a36d0e2": {
    "repo_id": "454032456",
    "repo_name": "tintinweb/smart-contract-sanctuary-avalanche",
    "repo_head": "39792ff211cb89e79e9eb6ee7278f6843acb5cc6",
    "repo_path": "contracts/testnet/23/2344c9D9CF2aca954c2994f670D34c972d54E024_NftStaker.sol"
  },
  "d63b5320bf608486d2b4dec3553a243d66804bc18cdf5c4ab5ad07f8bd8937c6": {
    "repo_id": "454080957",
    "repo_name": "tintinweb/smart-contract-sanctuary-arbitrum",
    "repo_head": "22f63ccbfcf792323b5e919312e2678851cff29e",
    "repo_path": "contracts/mainnet/de/de275ec4098066b0E0a23855Bd08914B5D87e5Fe_ArbiPepe.sol"
  },
  "3cbbb8f167db7fdd710772711c649697dea035b419f2ebd9dea8a773a416b56b": {
    "repo_id": "454080957",
    "repo_name": "tintinweb/smart-contract-sanctuary-arbitrum",
    "repo_head": "22f63ccbfcf792323b5e919312e2678851cff29e",
    "repo_path": "contracts/mainnet/ae/ae5ee9b6755ad23b7ccf9ad243664eeb65fe87d7_ArbiLocker.sol"
  },
  "6eb327a0896fc218ef2c42b2c5e3d14dd10c7dcff448f764ccb08c70944ae3a7": {
    "repo_id": "454032456",
    "repo_name": "tintinweb/smart-contract-sanctuary-avalanche",
    "repo_head": "39792ff211cb89e79e9eb6ee7278f6843acb5cc6",
    "repo_path": "contracts/mainnet/1b/1b4685f05f80584392dcf21598d05b84c84426d1_GreenifyFinance.sol"
  },
  "a3a24cbdec78d5b2ca5e5b116dc07c1782cce00d6de9999e35a972ecf73d7f4f": {
    "repo_id": "507660474",
    "repo_name": "tintinweb/smart-contract-sanctuary-celo",
    "repo_head": "81b52aac6adcf513ef4af86806a71db3704a5958",
    "repo_path": "contracts/mainnet/2a/2a8be97eb1029eab52ec743004f82e95612f2d3a_Multicall.sol"
  },
  "f1e2ee3904681a4776b337e72f581bd9fb9fc9eadc3642898e7809da47a4c7ed": {
    "repo_id": "454080957",
    "repo_name": "tintinweb/smart-contract-sanctuary-arbitrum",
    "repo_head": "22f63ccbfcf792323b5e919312e2678851cff29e",
    "repo_path": "contracts/mainnet/cd/cd1a2d9fb8c29a3856cc9b388bea838f340d0479_NftMultiTransfer.sol"
  },
  "334c7fdc960410ad644ff184a069a9b2097f9294e72082e090ffd574ce84ea60": {
    "repo_id": "454032456",
    "repo_name": "tintinweb/smart-contract-sanctuary-avalanche",
    "repo_head": "39792ff211cb89e79e9eb6ee7278f6843acb5cc6",
    "repo_path": "contracts/testnet/81/817C4FeE5c4DE6b2980a6165A55a3D465c79BD58_BurekTransfer.sol"
  },
  "9c800a70284187bc92649569a567831420a7e29035b060065cd5f07bb85d46b1": {
    "repo_id": "362608752",
    "repo_name": "ErichDylus/Open-Source-Law",
    "repo_head": "2849bf717989b3615825b73b0f8ab0f2eba5e3f5",
    "repo_path": "solidity/TokenConverter.sol"
  },
  "5ae0454f3d6e25b16c2d3c09f28ef84dc50f54c70ed0ae4f4f25c51a4a5568e2": {
    "repo_id": "454085139",
    "repo_name": "tintinweb/smart-contract-sanctuary-fantom",
    "repo_head": "63c4f5207082cb2a5f3ee5a49ccec1870b1acf3a",
    "repo_path": "contracts/mainnet/08/08c4fd6af8eba8391f91d143df70dcf826790c0a_eERC.sol"
  },
  "6591da599ff356a1974287999f4065db5365860e17ae9121edf3d61769db9ce6": {
    "repo_id": "312459708",
    "repo_name": "sambacha/prettier-config-solidity",
    "repo_head": "834d7e2d99deaf91804a398c19c0992eb60564fa",
    "repo_path": "test_validate/src/contracts/viaYul/array_memory_index_access.sol"
  },
  "d681681d2caa69ff5f9a9dcf9fb0f448373772ba031fbc19c411a1353cdb6cfd": {
    "repo_id": "454085139",
    "repo_name": "tintinweb/smart-contract-sanctuary-fantom",
    "repo_head": "63c4f5207082cb2a5f3ee5a49ccec1870b1acf3a",
    "repo_path": "contracts/mainnet/9d/9d4a2e4bed260b3edff5ad6c98b965936a78a6c6_FlashLiquidator.sol"
  },
  "34be968658ea651e941cdd8f63af5418421efe4957d74ac8767338bdb6ae690a": {
    "repo_id": "454032456",
    "repo_name": "tintinweb/smart-contract-sanctuary-avalanche",
    "repo_head": "39792ff211cb89e79e9eb6ee7278f6843acb5cc6",
    "repo_path": "contracts/testnet/6b/6bfD6bcB9A1E959d1662f9Ce83e983f8d01B27Cc_Gambit.sol"
  },
  "5a3a29eebe2a93eb7fea38a29739a09825e9b500327e5ca7b487d6cb49f8ceac": {
    "repo_id": "454085139",
    "repo_name": "tintinweb/smart-contract-sanctuary-fantom",
    "repo_head": "63c4f5207082cb2a5f3ee5a49ccec1870b1acf3a",
    "repo_path": "contracts/mainnet/ef/efeeb564597336797007ead96de0946527f4e726_Arb.sol"
  },
  "f359a1791d187a1ac5c45d0c03d4c3ec564babe2dcdb7dc9d40fa285ebbae5d0": {
    "repo_id": "392122640",
    "repo_name": "hearnjohn/immutable-news",
    "repo_head": "4b5ddbf25736175d1da9c4b785dcdb5ae6960d2b",
    "repo_path": "contracts/StoryStorage.sol"
  },
  "ef655cc35a589d5fc0bdaba8e5513cfc811cd3f4f8ed5d65a2706201475756a6": {
    "repo_id": "454032456",
    "repo_name": "tintinweb/smart-contract-sanctuary-avalanche",
    "repo_head": "39792ff211cb89e79e9eb6ee7278f6843acb5cc6",
    "repo_path": "contracts/mainnet/f5/f5C1092c8B20989A13857fcD1e7A29e102648395_Multicall2.sol"
  },
  "924916c2be81bf70097feb2e926a8c1b4285b59c338e9a87240650e88259a5d2": {
    "repo_id": "454080957",
    "repo_name": "tintinweb/smart-contract-sanctuary-arbitrum",
    "repo_head": "22f63ccbfcf792323b5e919312e2678851cff29e",
    "repo_path": "contracts/mainnet/3d/3d06117c2ebc03bf337b8172c2c30bd07b8ba5cb_RbxSeller.sol"
  },
  "f8e769eb59edf3015c1b4621e7fa9d65b7e269ebf062f11d5f1a678f4cefc8fb": {
    "repo_id": "454080957",
    "repo_name": "tintinweb/smart-contract-sanctuary-arbitrum",
    "repo_head": "22f63ccbfcf792323b5e919312e2678851cff29e",
    "repo_path": "contracts/mainnet/aa/Aa366bEB7F46F69c8546B81282ef39Ba142ac6FF_SushiGOHMEscrow.sol"
  },
  "2a4975698aabf99d7ad5d6529adee27cdf38913c15d4c65be6ab58eb3bb4390f": {
    "repo_id": "454032456",
    "repo_name": "tintinweb/smart-contract-sanctuary-avalanche",
    "repo_head": "39792ff211cb89e79e9eb6ee7278f6843acb5cc6",
    "repo_path": "contracts/mainnet/6d/6d39663ec3b905c019642e75fe674fc67384e58e_DividendTracker.sol"
  },
  "b59539ff0c2354c6c1614ddba9d862e78f66195b25a25ccfb5f44c28baffcc78": {
    "repo_id": "454032456",
    "repo_name": "tintinweb/smart-contract-sanctuary-avalanche",
    "repo_head": "39792ff211cb89e79e9eb6ee7278f6843acb5cc6",
    "repo_path": "contracts/testnet/79/7991e191193bd3cfcbaca17e16a01f52daab823f_Multicall2.sol"
  },
  "87529ed7b63675e6b96184501d1a5a45fdb687ecd7d7f3683f9581251d11bb11": {
    "repo_id": "611715548",
    "repo_name": "matter-labs/era-compiler-tests",
    "repo_head": "ea5134338da679cdf346c540fb90c83e6dd8d44d",
    "repo_path": "solidity/ethereum/abiEncoderV2/calldata_array_dynamic_static_short_decode.sol"
  },
  "df3873cb972d64a93bb40be737978bdf798c899fb0c1526a9c942c9a7783ef35": {
    "repo_id": "536247124",
    "repo_name": "rohitverse/30DaysSolidityChallenge",
    "repo_head": "34c28651817fe378ba97fbcfec93f3385a45b5f4",
    "repo_path": "17Day-Search.sol"
  },
  "7c254d613ae26b4df4f8f95e56fd23ec9006f0a46ae6d0cfb33a5d68f49bd3ec": {
    "repo_id": "454032456",
    "repo_name": "tintinweb/smart-contract-sanctuary-avalanche",
    "repo_head": "39792ff211cb89e79e9eb6ee7278f6843acb5cc6",
    "repo_path": "contracts/mainnet/41/41fb43d40a714051de1ce3990332ac2c80f5143b_AvxFarming.sol"
  },
  "70a94b732c458515db1a30d4cf7197f82c2deeb6cc98b296b03ab1ec0c4979df": {
    "repo_id": "596331795",
    "repo_name": "x7finance/community",
    "repo_head": "4491bc7b43c7d052800143f8e36c6216873d24fa",
    "repo_path": "contracts/contract-source-code/X7TokenBurner.sol"
  },
  "5bad336762400f2e9486433d76c6b5620cb0bd5bad994b289c0ddbe4077c4852": {
    "repo_id": "454085139",
    "repo_name": "tintinweb/smart-contract-sanctuary-fantom",
    "repo_head": "63c4f5207082cb2a5f3ee5a49ccec1870b1acf3a",
    "repo_path": "contracts/mainnet/c6/c63dd197540668ef1e1006daf8325737e532d0a1_eERC.sol"
  },
  "55bf5044c495467daf26ea9f0c553bf8ad6a3df8f15be92d395cc707a54781a7": {
    "repo_id": "454032456",
    "repo_name": "tintinweb/smart-contract-sanctuary-avalanche",
    "repo_head": "39792ff211cb89e79e9eb6ee7278f6843acb5cc6",
    "repo_path": "contracts/testnet/01/017f11fe6e39be2d243c3b158bd0057089ee1874_TCv1.sol"
  },
  "d6bcbe347c27783b21a500d7cc07e067a64f2a4b9c6c89559791ba740bf78269": {
    "repo_id": "426153531",
    "repo_name": "TheAlgorithms/Solidity",
    "repo_head": "1f4803962174e03cf0f363ad0f7540248ecaa174",
    "repo_path": "src/Maths/MulArray.sol"
  },
  "91e1d6859f9dfc7ef9a84788535bb162c3ccf21ba33a8f71aa5c49067102e635": {
    "repo_id": "416581097",
    "repo_name": "NoamaSamreen93/SmartScan-Dataset",
    "repo_head": "0199a090283626c8f2a5e96786e89fc850bdeabd",
    "repo_path": "sorted-evaluation-dataset/0.8/Contract-0x2f7e13d7ca6bcb2323b263aca068a882a1a9003a.sol"
  },
  "e8470e372f442357496accbafb7bd9870098dc112c591284a23554fdb4d84afb": {
    "repo_id": "454080957",
    "repo_name": "tintinweb/smart-contract-sanctuary-arbitrum",
    "repo_head": "22f63ccbfcf792323b5e919312e2678851cff29e",
    "repo_path": "contracts/mainnet/63/63e365aedc24cb5c8cc6c61061092cbf7d94ecd8_Migration.sol"
  },
  "70d9b81b4dc6cd7aac8777197e196741af6ab83880f98c21aca316b8078dca5d": {
    "repo_id": "611715548",
    "repo_name": "matter-labs/era-compiler-tests",
    "repo_head": "ea5134338da679cdf346c540fb90c83e6dd8d44d",
    "repo_path": "solidity/ethereum/abiencodedecode/contract_array_v2.sol"
  },
  "bf1d278cd04f0a0581d765dc6c5637f868ae01881b0142c0bfc52ff2d004f96a": {
    "repo_id": "454032456",
    "repo_name": "tintinweb/smart-contract-sanctuary-avalanche",
    "repo_head": "39792ff211cb89e79e9eb6ee7278f6843acb5cc6",
    "repo_path": "contracts/mainnet/80/80bdda5305b26102b3f63331419bef2f16ce458c_PauseGuardian.sol"
  },
  "64b69f9ffd0b8162d6c369230997d169c642b63e8156e69a10884607d361c7ac": {
    "repo_id": "454032456",
    "repo_name": "tintinweb/smart-contract-sanctuary-avalanche",
    "repo_head": "39792ff211cb89e79e9eb6ee7278f6843acb5cc6",
    "repo_path": "contracts/mainnet/c3/c312ba2da6bf972cee8fc0d2e79b3468819e2c64_PenguinAllocationController.sol"
  },
  "ff4ee635aa38cc4cd5efd6c7f5f1290b2e6493da3bb4de241f83e2a6baa8aad4": {
    "repo_id": "454080957",
    "repo_name": "tintinweb/smart-contract-sanctuary-arbitrum",
    "repo_head": "22f63ccbfcf792323b5e919312e2678851cff29e",
    "repo_path": "contracts/mainnet/83/8389D89E1D4b30C0ca4615BDD4707e11A53Fa971_GrannyPepe.sol"
  },
  "e2cc35c5954c479dc441ed546043f8c6e8076cd9867d12e190b91ddf4c5e75cb": {
    "repo_id": "454085139",
    "repo_name": "tintinweb/smart-contract-sanctuary-fantom",
    "repo_head": "63c4f5207082cb2a5f3ee5a49ccec1870b1acf3a",
    "repo_path": "contracts/mainnet/b6/b6718c84e0433dc7065465013b9762b455eb6096_FlashQueryV1.sol"
  },
  "1082b48e2f8a2f54b58507270817b8b0fb0b858c626b0f5371266a8e925d636d": {
    "repo_id": "413505224",
    "repo_name": "HysMagus/bsc-contract-sanctuary",
    "repo_head": "3664d1747968ece64852a6ac82c550aff18dfcb5",
    "repo_path": "0x7Fc4E3793c56bAfd130733563a05363b2f8ccFe7/contract.sol"
  },
  "02fc52a45bd4aaf4e3a99f2873c1d32318f640c8292255e1b02ae5512e05ccc0": {
    "repo_id": "468407125",
    "repo_name": "tintinweb/smart-contract-sanctuary-optimism",
    "repo_head": "5f86f1320e8b5cdf11039be240475eff1303ed67",
    "repo_path": "contracts/mainnet/86/86196e610ace45257456c648fa1cdc146ce6516f_Multicall.sol"
  },
  "42d75786c1a9417d45d7757b93fb44780cd1b048909e699bb79ca84a17b4102b": {
    "repo_id": "454080957",
    "repo_name": "tintinweb/smart-contract-sanctuary-arbitrum",
    "repo_head": "22f63ccbfcf792323b5e919312e2678851cff29e",
    "repo_path": "contracts/mainnet/7c/7c0DD989b0056f4Ec3101f178550eE7ccdE93153_BBBB.sol"
  },
  "74ea73b959c42d21efc42e9e11d71290388a91ed2834071c6fb2b7627ff68ad0": {
    "repo_id": "413505224",
    "repo_name": "HysMagus/bsc-contract-sanctuary",
    "repo_head": "3664d1747968ece64852a6ac82c550aff18dfcb5",
    "repo_path": "0x8B499C2C4fE75CFbA9aAfc419099158dA35937C2/contract.sol"
  },
  "4d6e79bb91f5eb47fc172713f32d3183b9265a920c88f98a7c08f1dda0406e76": {
    "repo_id": "454032456",
    "repo_name": "tintinweb/smart-contract-sanctuary-avalanche",
    "repo_head": "39792ff211cb89e79e9eb6ee7278f6843acb5cc6",
    "repo_path": "contracts/mainnet/69/6906cb57767bb698226ec992ef7017ec2a9b3f89_CantAfford.sol"
  },
  "f4a037ec3f2446e917a641366671691aa5f4ad640b361e55fa9b072bb5bcb471": {
    "repo_id": "454032456",
    "repo_name": "tintinweb/smart-contract-sanctuary-avalanche",
    "repo_head": "39792ff211cb89e79e9eb6ee7278f6843acb5cc6",
    "repo_path": "contracts/testnet/2d/2DF3F454a4F05bcbBe40aF04D502f6A11d2cf5Ea_Multicall.sol"
  },
  "e1b4d8a14bf5e10ab4d47f4b81b8d80be1991d367e36bdd74b5ebeaa566ffa90": {
    "repo_id": "464516541",
    "repo_name": "0xSmit/scatter_contracts",
    "repo_head": "49c21d05078c8aed3317cd7ad89aaac831ff346f",
    "repo_path": "Multicall.sol"
  },
  "ce67baee53a41f313caebf0743f611f60ac8f9a48e41635b88fe7722a5b9f248": {
    "repo_id": "454032456",
    "repo_name": "tintinweb/smart-contract-sanctuary-avalanche",
    "repo_head": "39792ff211cb89e79e9eb6ee7278f6843acb5cc6",
    "repo_path": "contracts/testnet/f4/F454b63b5E94af43d9811ab08d8Bda79E6b63Dc9_Authentication.sol"
  },
  "b24e5cfeda7f59f98569f4e43a23712e841df97a3d21d5c3cd8bb20eee7fbd03": {
    "repo_id": "413505224",
    "repo_name": "HysMagus/bsc-contract-sanctuary",
    "repo_head": "3664d1747968ece64852a6ac82c550aff18dfcb5",
    "repo_path": "0xa6F21AaAdA32CA46c876D915FDEb98d9c35A122a/contract.sol"
  },
  "b3bf5f47e9983d9662ba939ee54663c41bb8b179e32f5710b09d42dee9c4be14": {
    "repo_id": "380106285",
    "repo_name": "connova/Buds",
    "repo_head": "09706306e3a75c5b83b2d994c129e671df442a15",
    "repo_path": "contracts/Donations$420Token.sol"
  },
  "ed2c115ecac84373171eb1b17ee54bba248dd5f9359c6e46fab609ef0c2132e9": {
    "repo_id": "454080957",
    "repo_name": "tintinweb/smart-contract-sanctuary-arbitrum",
    "repo_head": "22f63ccbfcf792323b5e919312e2678851cff29e",
    "repo_path": "contracts/mainnet/6d/6d306e5f9b0b1aE6e74e6A9357f78d10f21F3128_TeamAlloc.sol"
  },
  "36c4bbebc854eee8f1e0705f50b7ed5d0f48583b7abab4f508d25f72adf8a2f5": {
    "repo_id": "454032456",
    "repo_name": "tintinweb/smart-contract-sanctuary-avalanche",
    "repo_head": "39792ff211cb89e79e9eb6ee7278f6843acb5cc6",
    "repo_path": "contracts/testnet/44/44f8740ba4b5083f996d9fa3653a8e5fc67decd9_TokenBatchTransfer.sol"
  },
  "aa72d62b489c8cd790a7b75c0559b6321d29ebdaa68530a4e34d065558b19262": {
    "repo_id": "606585904",
    "repo_name": "plotchy/defi-detective",
    "repo_head": "f48830b1085dac002283a2ce5e565e341aab5d0c",
    "repo_path": "00byaddress/00f4109bc594e85a838eb9ffb9723e04390702da.sol"
  },
  "bfd83e522abe8096038bbbea2d46b108e664000473e36da21969de6ab1119d17": {
    "repo_id": "454085139",
    "repo_name": "tintinweb/smart-contract-sanctuary-fantom",
    "repo_head": "63c4f5207082cb2a5f3ee5a49ccec1870b1acf3a",
    "repo_path": "contracts/mainnet/99/996b375EB74Da580fDa4719f4d01cc91EE05CDaA_BasedSolidSex.sol"
  },
  "ecfcc6c55a80fc3cdc9d0ac32ee183a27a3cc10fe7e00e060c88f6f696a8f97b": {
    "repo_id": "454032456",
    "repo_name": "tintinweb/smart-contract-sanctuary-avalanche",
    "repo_head": "39792ff211cb89e79e9eb6ee7278f6843acb5cc6",
    "repo_path": "contracts/testnet/7b/7b04c7c6f6df7bfe23285e5842c83762422d31fb_Royalties.sol"
  },
  "215b8c36c3b075fcbea238ac71fd3b72aa5f7f10f9f2a6647839cc49f42b5b85": {
    "repo_id": "454032456",
    "repo_name": "tintinweb/smart-contract-sanctuary-avalanche",
    "repo_head": "39792ff211cb89e79e9eb6ee7278f6843acb5cc6",
    "repo_path": "contracts/mainnet/46/46ba8e94507b014e15a260b05467e5e2b00dce46_TransactionBatcher.sol"
  },
  "31e0c16c152eeb0bce950f392b014f3d5dcf2270ad8675de0e70b19acd756938": {
    "repo_id": "454032456",
    "repo_name": "tintinweb/smart-contract-sanctuary-avalanche",
    "repo_head": "39792ff211cb89e79e9eb6ee7278f6843acb5cc6",
    "repo_path": "contracts/testnet/5e/5Ea5742B70fA153b354B7D52DcD9a0af06B23262_EthroneContract.sol"
  },
  "17d7f3a4682b1cbb2ad8a079ebf77d816658f564ac35b4ab8c4767551029114c": {
    "repo_id": "454080957",
    "repo_name": "tintinweb/smart-contract-sanctuary-arbitrum",
    "repo_head": "22f63ccbfcf792323b5e919312e2678851cff29e",
    "repo_path": "contracts/mainnet/62/629f64e68bc7a2de44bf7fc6b4b2bb508dcc0f69_XAI.sol"
  },
  "0262b771fa3a29629df5683f8409280024a05cec440303ea07f78882821d0bcf": {
    "repo_id": "454085139",
    "repo_name": "tintinweb/smart-contract-sanctuary-fantom",
    "repo_head": "63c4f5207082cb2a5f3ee5a49ccec1870b1acf3a",
    "repo_path": "contracts/mainnet/60/60b66a8b29c0761c68f4d606197c981315d2f635_aStake.sol"
  },
  "e05e5c475e03b6f0ef4738b588977415a5bd9a111e625e258474c5c5ddf5466a": {
    "repo_id": "454080957",
    "repo_name": "tintinweb/smart-contract-sanctuary-arbitrum",
    "repo_head": "22f63ccbfcf792323b5e919312e2678851cff29e",
    "repo_path": "contracts/mainnet/99/99D73e5d83148FA2b41248059061f91703Cf0516_Multicall2.sol"
  },
  "3263d89ab71f9b223657ef21345df45e1c9688e6050bea00d11a74768dcd2e18": {
    "repo_id": "611715548",
    "repo_name": "matter-labs/era-compiler-tests",
    "repo_head": "ea5134338da679cdf346c540fb90c83e6dd8d44d",
    "repo_path": "solidity/ethereum/abiEncoderV2/calldata_array_dynamic_index_access.sol"
  },
  "050a9074c7c6421bce4299fd92568384167381854cf3e5b03c4b01aaff85df13": {
    "repo_id": "454080957",
    "repo_name": "tintinweb/smart-contract-sanctuary-arbitrum",
    "repo_head": "22f63ccbfcf792323b5e919312e2678851cff29e",
    "repo_path": "contracts/mainnet/58/58dffe935807ab376472b4e1f470954e821ac654_OLDSHARBI.sol"
  },
  "df9d09f2af4778720f5dbcc84e6b516edb382667e7dc4fe31093a9ccd05e1614": {
    "repo_id": "454080957",
    "repo_name": "tintinweb/smart-contract-sanctuary-arbitrum",
    "repo_head": "22f63ccbfcf792323b5e919312e2678851cff29e",
    "repo_path": "contracts/mainnet/41/411b49655522f2858901294f5ddc0cc98e2d4758_Brandon.sol"
  },
  "f2c73cac1f7c4a1d44e90f5f9093ac7acd809ef6417d628245f89f3ab606a21c": {
    "repo_id": "454032456",
    "repo_name": "tintinweb/smart-contract-sanctuary-avalanche",
    "repo_head": "39792ff211cb89e79e9eb6ee7278f6843acb5cc6",
    "repo_path": "contracts/mainnet/ac/acfe622a43c1e651a1d80eccc7075de7614df47c_Multicall.sol"
  },
  "9237af48ddd6851852d3585511778b45eeeeb5d33e23064caaddf00277711e35": {
    "repo_id": "454080957",
    "repo_name": "tintinweb/smart-contract-sanctuary-arbitrum",
    "repo_head": "22f63ccbfcf792323b5e919312e2678851cff29e",
    "repo_path": "contracts/mainnet/2c/2c11bdc5eb817c676f4cadd9a47023455f60a40a_DecentralizedAiArbitrum.sol"
  },
  "6edf6d49eece1d010742783b7f28f299a903002ba454329cf004fe174a7ae8fb": {
    "repo_id": "468407125",
    "repo_name": "tintinweb/smart-contract-sanctuary-optimism",
    "repo_head": "5f86f1320e8b5cdf11039be240475eff1303ed67",
    "repo_path": "contracts/mainnet/ea/eafa25e962ee875f75fdc97e152d39bb4c8978ae_MartianMarketDirectory.sol"
  },
  "0a47699ed4e34dba186438591217e4f3a6353f85782df2408a200a73caa025ec": {
    "repo_id": "454080957",
    "repo_name": "tintinweb/smart-contract-sanctuary-arbitrum",
    "repo_head": "22f63ccbfcf792323b5e919312e2678851cff29e",
    "repo_path": "contracts/testnet/d6/d68422be8b81bad94b67256fd8e8e031fec5c543_Multicall.sol"
  },
  "1fe976252413c8043a28d74cebae5ec4ce378b13c31db433bf8718c26456e5a0": {
    "repo_id": "508219907",
    "repo_name": "BubbleDex/BubbleSwap-Contracts",
    "repo_head": "b7d8d500e6781546200996f749f5e79a183caf23",
    "repo_path": "BubbleMulticall/BubbleMulticall.sol"
  },
  "26b70a914850d6fd5ff32b396e0bf7acabf2bdc3e82269e8f4712fadcb87f09e": {
    "repo_id": "454085139",
    "repo_name": "tintinweb/smart-contract-sanctuary-fantom",
    "repo_head": "63c4f5207082cb2a5f3ee5a49ccec1870b1acf3a",
    "repo_path": "contracts/mainnet/fb/fbf0dd56617a36fa5ace8c0800c74f38a4a558bb_hecCounter.sol"
  },
  "ed4a1af395ddd5267bc64b78ec52c564e1cf8c1cda33ce6acfeb678c4aeba0a8": {
    "repo_id": "454032456",
    "repo_name": "tintinweb/smart-contract-sanctuary-avalanche",
    "repo_head": "39792ff211cb89e79e9eb6ee7278f6843acb5cc6",
    "repo_path": "contracts/testnet/e4/e4aC8Aba6AC8724D1E507CA74Bbf13a26339e97A_Gambit.sol"
  },
  "c038e51564ba7d04173cf8ac7e50b2b10ba4e86adf325370a2b44a08c4b55e1a": {
    "repo_id": "454032456",
    "repo_name": "tintinweb/smart-contract-sanctuary-avalanche",
    "repo_head": "39792ff211cb89e79e9eb6ee7278f6843acb5cc6",
    "repo_path": "contracts/mainnet/ab/Ab2CF46Ec33f598f35a8A209A9A025901202953C_BabyMeerkatsStrings.sol"
  },
  "e4eadff2c8673f03e618b23a588a34641b82f031e5285b41ce9a754dec6f4a2f": {
    "repo_id": "454032456",
    "repo_name": "tintinweb/smart-contract-sanctuary-avalanche",
    "repo_head": "39792ff211cb89e79e9eb6ee7278f6843acb5cc6",
    "repo_path": "contracts/mainnet/6b/6b639d1a4423714140F93995dD0481006009356B_Market.sol"
  },
  "52b6c67e9eecb448ef3424b99d7b192aa454221f06bf67936737b055c514e6f2": {
    "repo_id": "454080957",
    "repo_name": "tintinweb/smart-contract-sanctuary-arbitrum",
    "repo_head": "22f63ccbfcf792323b5e919312e2678851cff29e",
    "repo_path": "contracts/mainnet/04/0458C4E618661d1A4dcDd4268cF142A2d993F24D_ERC20.sol"
  },
  "d2c5e9ee52db895925d774f0e1ab81ff6cf1870fe2256a26fe8ca70b087968b6": {
    "repo_id": "454032456",
    "repo_name": "tintinweb/smart-contract-sanctuary-avalanche",
    "repo_head": "39792ff211cb89e79e9eb6ee7278f6843acb5cc6",
    "repo_path": "contracts/testnet/5c/5c8576095ade5A131209572bBB41f9381AaFE9f5_SingleStakeManager.sol"
  },
  "322484e79f43950d46bf6f24e357cbd4f6a6439a86c91ef5922db6a579ea72b0": {
    "repo_id": "454032456",
    "repo_name": "tintinweb/smart-contract-sanctuary-avalanche",
    "repo_head": "39792ff211cb89e79e9eb6ee7278f6843acb5cc6",
    "repo_path": "contracts/testnet/4d/4dEb0cC920c653eC14eA068335cc74dea6ACbb71_RequestData.sol"
  }
}